<?xml version="1.0" encoding="UTF-8"?>
<svg width="83px" height="18px" viewBox="0 0 83 18" version="1.1" xmlns="http://www.w3.org/2000/svg" xmlns:xlink="http://www.w3.org/1999/xlink">
    <!-- Generator: Sketch 48.1 (47250) - http://www.bohemiancoding.com/sketch -->
    <title>logo_type</title>
    <desc>Created with Sketch.</desc>
    <defs></defs>
    <g id="top_header" stroke="none" stroke-width="1" fill="none" fill-rule="evenodd" transform="translate(-272.000000, -30.000000)">
        <g id="Header" transform="translate(237.000000, 22.000000)" fill="#213945">
            <g id="logo_type" transform="translate(35.000000, 7.000000)">
                <polyline id="Fill-4" points="6.95094613 2.8929823 6.93884407 18.2983363 5.42371877 18.2969646 5.43555774 2.89161062 0.384789265 2.88749558 0.385841618 1.57068142 12.0030301 1.58055752 12.0019777 2.89737168 6.95094613 2.8929823"></polyline>
                <path d="M18.2537441,18.3079381 L18.1293033,15.9379469 C17.4718458,17.2276018 16.1574568,18.5433186 14.2634844,18.5416726 C12.3692489,18.5400265 10.6023481,17.5112655 10.6047159,14.2195044 L10.610767,6.31916814 L12.0503859,6.32053982 L12.044598,13.8261062 C12.0430195,15.9327345 12.7494115,17.1708142 14.5676144,17.1724602 C16.4110739,17.1741062 17.8775279,15.1475841 18.1308819,13.6466903 L18.1366698,6.32575221 L19.5765519,6.32712389 L19.5670807,18.3090354 L18.2537441,18.3079381" id="Fill-5"></path>
                <path d="M22.0827307,18.3112301 L22.0919388,6.32904425 L23.5315577,6.33014159 L23.5220866,18.3123274 L22.0827307,18.3112301 Z M22.8267443,3.38020354 C22.1953325,3.37965487 21.6652096,2.85265487 21.6657358,2.19424779 C21.666262,1.53584071 22.1719176,0.983327434 22.8033294,0.983876106 C23.4344782,0.984424779 23.9643379,1.51142478 23.9638118,2.16983186 C23.9632856,2.82823894 23.457893,3.38075221 22.8267443,3.38020354 L22.8267443,3.38020354 Z" id="Fill-6"></path>
                <polyline id="Fill-7" points="43.2758057 18.3290619 42.8327651 3.31820354 37.3913105 18.3241239 36.12875 18.3230265 30.7107103 3.30777876 30.2697743 18.3180885 28.8048989 18.3169912 29.449202 1.59509735 31.5960023 1.5970177 36.8125163 16.2169469 42.0766494 1.60579646 44.2234496 1.60771681 44.841444 18.3304336 43.2758057 18.3290619"></polyline>
                <path d="M51.6193869,7.35478761 C49.1442525,7.35259292 48.132415,9.64302655 48.0048172,11.3546106 L54.9498212,11.3603717 C54.9513997,9.38515044 54.0687386,7.35670796 51.6193869,7.35478761 Z M48.004028,12.539469 C48.0016602,15.3045044 49.3641943,17.2544867 51.7885526,17.2566814 C54.212911,17.2586018 55.4515305,15.8378142 55.4515305,15.8378142 L56.1579225,16.8654779 C56.1579225,16.8654779 54.6919947,18.5756903 51.6612179,18.5732212 C48.6307042,18.5707522 46.4860087,16.225177 46.4889027,12.3537434 C46.4920597,8.45624779 48.7664578,6.11478761 51.6706891,6.11725664 C54.5749204,6.11972566 56.4168014,8.46502655 56.4144336,11.7567876 L56.4139074,12.5466018 L48.004028,12.539469 L48.004028,12.539469 Z" id="Fill-8"></path>
                <path d="M63.1002956,7.36438938 C60.827213,7.36246903 59.3102461,9.6260177 59.3081414,12.3386549 C59.3060367,15.0246814 60.6933011,17.3167611 62.9661206,17.3186814 C65.2389401,17.3206018 66.7561701,15.0570531 66.7582748,12.3446903 C66.7606426,9.65838938 65.372852,7.36630973 63.1002956,7.36438938 Z M66.955591,18.3490885 L66.7046048,16.3738673 C66.7046048,16.3738673 65.5917414,18.5850177 62.6875101,18.5825487 C59.6572595,18.5800796 57.7903852,15.8924071 57.7930161,12.3372832 C57.7956469,8.78188496 59.9442888,6.12411504 62.9748025,6.12658407 C65.6264691,6.1290531 66.5848996,8.21016814 66.7106558,8.47353097 L66.7164438,1.09992035 L68.1557997,1.1010177 L68.1426452,18.3501858 L66.955591,18.3490885 L66.955591,18.3490885 Z" id="Fill-9"></path>
                <path d="M70.39547,18.3521062 L70.4046781,6.36992035 L71.8442971,6.3710177 L71.835089,18.3532035 L70.39547,18.3521062 Z M71.1392206,3.42107965 C70.5080718,3.42053097 69.9782121,2.89325664 69.9787382,2.23512389 C69.9792644,1.57671681 70.4849201,1.02420354 71.1160688,1.02475221 C71.7474806,1.02502655 72.2773404,1.55230088 72.2768142,2.21043363 C72.2765511,2.86911504 71.7708955,3.42162832 71.1392206,3.42107965 L71.1392206,3.42107965 Z" id="Fill-10"></path>
                <path d="M80.8811159,12.1460708 C80.249704,12.1455221 78.6335528,12.2758319 77.9005889,12.4066903 C77.1684143,12.537823 75.12264,12.9575575 75.1210614,14.9327788 C75.1194829,16.9077257 76.5077997,17.4092124 77.5180586,17.4100354 C78.5283175,17.4108584 80.1197384,16.779885 80.8787481,15.2008053 L80.8811159,12.1460708 Z M81.1791949,18.3611593 C81.1791949,18.3611593 80.9274194,17.5707965 80.9279456,16.780708 C80.2454946,17.7022035 79.0326577,18.5962655 77.1384222,18.5946195 C75.2444498,18.5932478 73.6035683,17.4330796 73.6054099,14.9838053 C73.6075146,12.5350796 75.6285587,11.7466372 76.5125352,11.4840973 C77.3965118,11.2212832 78.9376829,10.9856283 80.8819051,10.9872743 L80.8824313,10.0657788 C80.8840098,8.09028319 79.546206,7.37838053 78.0310807,7.37700885 C76.5156923,7.37563717 75.277862,7.95393805 74.6209306,8.4540531 L74.0410841,7.29470796 C74.8998042,6.74219469 76.3146929,6.13783186 77.9561005,6.13947788 C79.5977713,6.14084956 80.5825107,6.64178761 81.1881399,7.19539823 C81.793506,7.74900885 82.3233657,8.61810619 82.3217872,10.461646 L82.3175778,15.9919912 C82.3167885,17.1771239 82.5688271,17.835531 82.8208656,18.362531 L81.1791949,18.3611593 L81.1791949,18.3611593 Z" id="Fill-11"></path>
            </g>
        </g>
    </g>
</svg>